Long Beach Animal Shelter - EDA
…
df_for_at_intake_adopt_tbl %>%
  mutate(values = paste0(n,"/",outcome_type_total, "\n(", round(outcome_rate*100, 2), "%)")) %>%
  group_by(animal_type) %>%
  mutate(animal_type_adopted = sum(n),
         animal_type_adopted_prop = animal_type_adopted/total_animal_count) %>%
  ungroup() 

# A tibble: 30 × 12
   animal_type intake_condition  adopted     n outcome_type_total outcome_rate
   <fct>       <fct>             <fct>   <int>              <int>        <dbl>
 1 Exotic      Mild physical     Yes         1                 17      0.0588 
 2 Exotic      Moderate physical Yes         1                 10      0.1    
 3 Exotic      Severe physical   Yes         1                 22      0.0455 
 4 Exotic      Normal            Yes        11                292      0.0377 
 5 Exotic      Under age/weight  Yes         0                  3      0      
 6 Birds       Mild physical     Yes         4                429      0.00932
 7 Birds       Moderate physical Yes         1                502      0.00199
 8 Birds       Severe physical   Yes         1                597      0.00168
 9 Birds       Normal            Yes        26                253      0.103  
10 Birds       Under age/weight  Yes         0                284      0      
# ℹ 20 more rows
# ℹ 6 more variables: total_animal_count <int>, intake_condition_total <int>,
#   animal_type_label <fct>, values <chr>, animal_type_adopted <int>,
#   animal_type_adopted_prop <dbl>
